Data Wrangling
…
---

# Tibbles

.smaller[

```r
health
```

```
## # A tibble: 100,000 × 27
##      index `National Provid…` `Last Name/Org…` `First Name of…` `Middle Initia…`
##      <dbl>              <dbl> <chr>            <chr>            <chr>           
##  1 8774979         1891106191 UPADHYAYULA      SATYASREE        <NA>            
##  2 3354385         1346202256 JONES            WENDY            P               
##  3 3001884         1306820956 DUROCHER         RICHARD          W               
##  4 7594822         1770523540 FULLARD          JASPER           <NA>            
##  5  746159         1073627758 PERROTTI         ANTHONY          E               
##  6 3443985         1346571551 PUGH             JOHN             R               
##  7 2137027         1215943535 BRUMITT          TOM              B               
##  8 6169160         1629160551 GALBREATH        RONALD           G               
##  9 5086226         1518929124 BOONE            RALPH            M               
## 10 3900718         1396781134 METWEST INC      <NA>             <NA>            
## # … with 99,990 more rows, and 22 more variables:
## #   `Credentials of the Provider` <chr>, `Gender of the Provider` <chr>,
## #   `Entity Type of the Provider` <chr>,
## #   `Street Address 1 of the Provider` <chr>,
## #   `Street Address 2 of the Provider` <chr>, `City of the Provider` <chr>,
## #   `Zip Code of the Provider` <dbl>, `State Code of the Provider` <chr>,
## #   `Country Code of the Provider` <chr>, `Provider Type` <chr>, …
```
…
Note this is the complete list &mdash; shorter than types for **readr** and no
abbreviations

---

# Reading Excel sheets

```r
col_types <- rep(c('numeric', 'text','numeric'), times = c(2, 18, 7))
(health_xl <- read_excel(xl_file, sheet = 1, col_types = col_types))
```

```
## # A tibble: 100,000 × 27
##      index `National Provid…` `Last Name/Org…` `First Name of…` `Middle Initia…`
##      <dbl>              <dbl> <chr>            <chr>            <chr>           
##  1 8774979         1891106191 UPADHYAYULA      SATYASREE        <NA>            
##  2 3354385         1346202256 JONES            WENDY            P               
##  3 3001884         1306820956 DUROCHER         RICHARD          W               
##  4 7594822         1770523540 FULLARD          JASPER           <NA>            
##  5  746159         1073627758 PERROTTI         ANTHONY          E               
##  6 3443985         1346571551 PUGH             JOHN             R               
##  7 2137027         1215943535 BRUMITT          TOM              B               
##  8 6169160         1629160551 GALBREATH        RONALD           G               
##  9 5086226         1518929124 BOONE            RALPH            M               
## 10 3900718         1396781134 METWEST INC      <NA>             <NA>            
## # … with 99,990 more rows, and 22 more variables:
## #   `Credentials of the Provider` <chr>, `Gender of the Provider` <chr>,
## #   `Entity Type of the Provider` <chr>,
## #   `Street Address 1 of the Provider` <chr>,
## #   `Street Address 2 of the Provider` <chr>, `City of the Provider` <chr>,
## #   `Zip Code of the Provider` <chr>, `State Code of the Provider` <chr>,
## #   `Country Code of the Provider` <chr>, `Provider Type` <chr>, …
```
…
---

# Global burden of disease

```r
disease <- read_csv(here('data', 'gbd', 'gbd.csv'))
```

```r
disease
```

```
## # A tibble: 168 × 5
##    cause                  year sex    income       deaths_millions
##    <chr>                 <dbl> <chr>  <chr>                  <dbl>
##  1 Communicable diseases  1990 Female High                    0.21
##  2 Communicable diseases  1990 Female Upper-Middle            1.15
##  3 Communicable diseases  1990 Female Lower-Middle            4.43
##  4 Communicable diseases  1990 Female Low                     1.51
##  5 Communicable diseases  1990 Male   High                    0.26
##  6 Communicable diseases  1990 Male   Upper-Middle            1.35
##  7 Communicable diseases  1990 Male   Lower-Middle            4.73
##  8 Communicable diseases  1990 Male   Low                     1.72
##  9 Injuries               1990 Female High                    0.2 
## 10 Injuries               1990 Female Upper-Middle            0.55
## # … with 158 more rows
```

---

# `filter()`

Subset observations based on the values or one or more of the columns

```r
filter(disease, year == 2017)
```

```
## # A tibble: 24 × 5
##    cause                  year sex    income       deaths_millions
##    <chr>                 <dbl> <chr>  <chr>                  <dbl>
##  1 Communicable diseases  2017 Female High                    0.26
##  2 Communicable diseases  2017 Female Upper-Middle            0.55
##  3 Communicable diseases  2017 Female Lower-Middle            2.92
##  4 Communicable diseases  2017 Female Low                     1.18
##  5 Communicable diseases  2017 Male   High                    0.29
##  6 Communicable diseases  2017 Male   Upper-Middle            0.73
##  7 Communicable diseases  2017 Male   Lower-Middle            3.1 
##  8 Communicable diseases  2017 Male   Low                     1.35
##  9 Injuries               2017 Female High                    0.21
## 10 Injuries               2017 Female Upper-Middle            0.43
## # … with 14 more rows
```
…
---

# Plot

```r
gbd17 <- disease %>% filter(year == 2017) %>%
    mutate(income = fct_relevel(income,
                                'Low', 'Lower-Middle',
                                'Upper-Middle', 'High'))
gbd17
```

```
## # A tibble: 24 × 5
##    cause                  year sex    income       deaths_millions
##    <chr>                 <dbl> <chr>  <fct>                  <dbl>
##  1 Communicable diseases  2017 Female High                    0.26
##  2 Communicable diseases  2017 Female Upper-Middle            0.55
##  3 Communicable diseases  2017 Female Lower-Middle            2.92
##  4 Communicable diseases  2017 Female Low                     1.18
##  5 Communicable diseases  2017 Male   High                    0.29
##  6 Communicable diseases  2017 Male   Upper-Middle            0.73
##  7 Communicable diseases  2017 Male   Lower-Middle            3.1 
##  8 Communicable diseases  2017 Male   Low                     1.35
##  9 Injuries               2017 Female High                    0.21
## 10 Injuries               2017 Female Upper-Middle            0.43
## # … with 14 more rows
```
…
---

# `arrange()`

Sort the rows according to a condition or variable

```r
arrange(disease, deaths_millions)
```

```
## # A tibble: 168 × 5
##    cause     year sex    income deaths_millions
##    <chr>    <dbl> <chr>  <chr>            <dbl>
##  1 Injuries  1990 Female Low               0.11
##  2 Injuries  1995 Female Low               0.11
##  3 Injuries  2005 Female Low               0.11
##  4 Injuries  2015 Female Low               0.12
##  5 Injuries  2017 Female Low               0.12
##  6 Injuries  2000 Female Low               0.13
##  7 Injuries  2000 Female High              0.19
##  8 Injuries  2005 Female High              0.19
##  9 Injuries  2010 Female High              0.19
## 10 Injuries  1990 Female High              0.2 
## # … with 158 more rows
```

---

# `desc()`

Arrange in descending order using `desc()`

```r
arrange(disease, desc(deaths_millions))
```

```
## # A tibble: 168 × 5
##    cause                      year sex    income       deaths_millions
##    <chr>                     <dbl> <chr>  <chr>                  <dbl>
##  1 Non-communicable diseases  2017 Male   Upper-Middle            8.79
##  2 Non-communicable diseases  2015 Male   Upper-Middle            8.41
##  3 Non-communicable diseases  2010 Male   Upper-Middle            7.65
##  4 Non-communicable diseases  2017 Male   Lower-Middle            7.3 
##  5 Non-communicable diseases  2017 Female Upper-Middle            7.28
##  6 Non-communicable diseases  2005 Male   Upper-Middle            7.18
##  7 Non-communicable diseases  2015 Female Upper-Middle            7.08
##  8 Non-communicable diseases  2015 Male   Lower-Middle            6.98
##  9 Non-communicable diseases  2000 Male   Upper-Middle            6.63
## 10 Non-communicable diseases  2010 Female Upper-Middle            6.38
## # … with 158 more rows
```

---

# `select()`

Choose which variables to view or work with

```r
select(disease, c(year, sex, income))
```

```
## # A tibble: 168 × 3
##     year sex    income      
##    <dbl> <chr>  <chr>       
##  1  1990 Female High        
##  2  1990 Female Upper-Middle
##  3  1990 Female Lower-Middle
##  4  1990 Female Low         
##  5  1990 Male   High        
##  6  1990 Male   Upper-Middle
##  7  1990 Male   Lower-Middle
##  8  1990 Male   Low         
##  9  1990 Female High        
## 10  1990 Female Upper-Middle
## # … with 158 more rows
```
…
# `select()` &mdash; many options for selecting

.row[

.col-6[

`matches()`

```r
select(disease, matches('deaths'))
```

```
## # A tibble: 168 × 1
##    deaths_millions
##              <dbl>
##  1            0.21
##  2            1.15
##  3            4.43
##  4            1.51
##  5            0.26
##  6            1.35
##  7            4.73
##  8            1.72
##  9            0.2 
## 10            0.55
## # … with 158 more rows
```
]

.col-6[

`last_col()`

```r
select(disease, last_col())
```

```
## # A tibble: 168 × 1
##    deaths_millions
##              <dbl>
##  1            0.21
##  2            1.15
##  3            4.43
##  4            1.51
##  5            0.26
##  6            1.35
##  7            4.73
##  8            1.72
##  9            0.2 
## 10            0.55
## # … with 158 more rows
```
…
# `select()` &mdash; many options for selecting

.row[

.col-6[

`from:to`

```r
select(disease, year:income)
```

```
## # A tibble: 168 × 3
##     year sex    income      
##    <dbl> <chr>  <chr>       
##  1  1990 Female High        
##  2  1990 Female Upper-Middle
##  3  1990 Female Lower-Middle
##  4  1990 Female Low         
##  5  1990 Male   High        
##  6  1990 Male   Upper-Middle
##  7  1990 Male   Lower-Middle
##  8  1990 Male   Low         
##  9  1990 Female High        
## 10  1990 Female Upper-Middle
## # … with 158 more rows
```
]

.col-6[

`starts_with()`

```r
select(disease, starts_with('i'))
```

```
## # A tibble: 168 × 1
##    income      
##    <chr>       
##  1 High        
##  2 Upper-Middle
##  3 Lower-Middle
##  4 Low         
##  5 High        
##  6 Upper-Middle
##  7 Lower-Middle
##  8 Low         
##  9 High        
## 10 Upper-Middle
## # … with 158 more rows
```
…
# `pivot_longer()`

To go from the wide version of `disease` to the long form we use `pivot_longer()`

```r
disease_wide %>%
    pivot_longer(matches('Female|Male'), # matches any column with 'Female' or 'Male' in name
                 names_to = c('sex', 'year'), # variables to create in long form
                 values_to = 'deaths_millions', # column to put the data into
                 names_sep = ':')               # how to split names_to columns?
```

```
## # A tibble: 168 × 5
##    cause                 income sex    year  deaths_millions
##    <chr>                 <chr>  <chr>  <chr>           <dbl>
##  1 Communicable diseases High   Female 1990             0.21
##  2 Communicable diseases High   Male   1990             0.26
##  3 Communicable diseases High   Female 1995             0.22
##  4 Communicable diseases High   Male   1995             0.29
##  5 Communicable diseases High   Female 2000             0.23
##  6 Communicable diseases High   Male   2000             0.25
##  7 Communicable diseases High   Female 2005             0.23
##  8 Communicable diseases High   Male   2005             0.25
##  9 Communicable diseases High   Female 2010             0.24
## 10 Communicable diseases High   Male   2010             0.25
## # … with 158 more rows
```
…
---

# New York Flights

```r
flights
```

```
## # A tibble: 336,776 × 19
##     year month   day dep_time sched_dep_time dep_delay arr_time sched_arr_time
##    <int> <int> <int>    <int>          <int>     <dbl>    <int>          <int>
##  1  2013     1     1      517            515         2      830            819
##  2  2013     1     1      533            529         4      850            830
##  3  2013     1     1      542            540         2      923            850
##  4  2013     1     1      544            545        -1     1004           1022
##  5  2013     1     1      554            600        -6      812            837
##  6  2013     1     1      554            558        -4      740            728
##  7  2013     1     1      555            600        -5      913            854
##  8  2013     1     1      557            600        -3      709            723
##  9  2013     1     1      557            600        -3      838            846
## 10  2013     1     1      558            600        -2      753            745
## # … with 336,766 more rows, and 11 more variables: arr_delay <dbl>,
## #   carrier <chr>, flight <int>, tailnum <chr>, origin <chr>, dest <chr>,
## #   air_time <dbl>, distance <dbl>, hour <dbl>, minute <dbl>, time_hour <dttm>
```
…
---

# New York Flights

```r
airports
```

```
## # A tibble: 1,458 × 8
##    faa   name                             lat    lon   alt    tz dst   tzone    
##    <chr> <chr>                          <dbl>  <dbl> <dbl> <dbl> <chr> <chr>    
##  1 04G   Lansdowne Airport               41.1  -80.6  1044    -5 A     America/…
##  2 06A   Moton Field Municipal Airport   32.5  -85.7   264    -6 A     America/…
##  3 06C   Schaumburg Regional             42.0  -88.1   801    -6 A     America/…
##  4 06N   Randall Airport                 41.4  -74.4   523    -5 A     America/…
##  5 09J   Jekyll Island Airport           31.1  -81.4    11    -5 A     America/…
##  6 0A9   Elizabethton Municipal Airport  36.4  -82.2  1593    -5 A     America/…
##  7 0G6   Williams County Airport         41.5  -84.5   730    -5 A     America/…
##  8 0G7   Finger Lakes Regional Airport   42.9  -76.8   492    -5 A     America/…
##  9 0P2   Shoestring Aviation Airfield    39.8  -76.6  1000    -5 U     America/…
## 10 0S9   Jefferson County Intl           48.1 -123.    108    -8 A     America/…
## # … with 1,448 more rows
```

---

# New York Flights

```r
planes
```

```
## # A tibble: 3,322 × 9
##    tailnum  year type              manufacturer model engines seats speed engine
##    <chr>   <int> <chr>             <chr>        <chr>   <int> <int> <int> <chr> 
##  1 N10156   2004 Fixed wing multi… EMBRAER      EMB-…       2    55    NA Turbo…
##  2 N102UW   1998 Fixed wing multi… AIRBUS INDU… A320…       2   182    NA Turbo…
##  3 N103US   1999 Fixed wing multi… AIRBUS INDU… A320…       2   182    NA Turbo…
##  4 N104UW   1999 Fixed wing multi… AIRBUS INDU… A320…       2   182    NA Turbo…
##  5 N10575   2002 Fixed wing multi… EMBRAER      EMB-…       2    55    NA Turbo…
##  6 N105UW   1999 Fixed wing multi… AIRBUS INDU… A320…       2   182    NA Turbo…
##  7 N107US   1999 Fixed wing multi… AIRBUS INDU… A320…       2   182    NA Turbo…
##  8 N108UW   1999 Fixed wing multi… AIRBUS INDU… A320…       2   182    NA Turbo…
##  9 N109UW   1999 Fixed wing multi… AIRBUS INDU… A320…       2   182    NA Turbo…
## 10 N110UW   1999 Fixed wing multi… AIRBUS INDU… A320…       2   182    NA Turbo…
## # … with 3,312 more rows
```

---

# New York Flights

```r
weather
```

```
## # A tibble: 26,115 × 15
##    origin  year month   day  hour  temp  dewp humid wind_dir wind_speed
##    <chr>  <int> <int> <int> <int> <dbl> <dbl> <dbl>    <dbl>      <dbl>
##  1 EWR     2013     1     1     1  39.0  26.1  59.4      270      10.4 
##  2 EWR     2013     1     1     2  39.0  27.0  61.6      250       8.06
##  3 EWR     2013     1     1     3  39.0  28.0  64.4      240      11.5 
##  4 EWR     2013     1     1     4  39.9  28.0  62.2      250      12.7 
##  5 EWR     2013     1     1     5  39.0  28.0  64.4      260      12.7 
##  6 EWR     2013     1     1     6  37.9  28.0  67.2      240      11.5 
##  7 EWR     2013     1     1     7  39.0  28.0  64.4      240      15.0 
##  8 EWR     2013     1     1     8  39.9  28.0  62.2      250      10.4 
##  9 EWR     2013     1     1     9  39.9  28.0  62.2      260      15.0 
## 10 EWR     2013     1     1    10  41    28.0  59.6      260      13.8 
## # … with 26,105 more rows, and 5 more variables: wind_gust <dbl>, precip <dbl>,
## #   pressure <dbl>, visib <dbl>, time_hour <dttm>
```
…
# Examples

---

# ER injuries

ER injuries data set consists of three tables of data

```r
injuries <- vroom::vroom('data/er-injuries/injuries.tsv.gz')
injuries
```

```
## # A tibble: 255,064 × 10
##    trmt_date    age sex    race       body_part  diag  location prod_code weight
##    <date>     <dbl> <chr>  <chr>      <chr>      <chr> <chr>        <dbl>  <dbl>
##  1 2017-01-01    71 male   white      Upper Tru… Cont… Other P…      1807   77.7
##  2 2017-01-01    16 male   white      Lower Arm  Burn… Home           676   77.7
##  3 2017-01-01    58 male   white      Upper Tru… Cont… Home           649   77.7
##  4 2017-01-01    21 male   white      Lower Tru… Stra… Home          4076   77.7
##  5 2017-01-01    54 male   white      Head       Inte… Other P…      1807   77.7
##  6 2017-01-01    21 male   white      Hand       Frac… Home          1884   77.7
##  7 2017-01-01    35 female not stated Lower Tru… Stra… Home          1807   87.1
##  8 2017-01-01    62 female not stated Lower Arm  Lace… Home          4074   87.1
##  9 2017-01-01    22 male   not stated Knee       Disl… Home          4076   87.1
## 10 2017-01-01    58 female not stated Lower Leg  Frac… Home          1842   87.1
## # … with 255,054 more rows, and 1 more variable: narrative <chr>
```

---

# ER injuries &mdash; products

```r
products <- vroom::vroom('data/er-injuries/products.tsv')
products
```

```
## # A tibble: 38 × 2
##    prod_code title                                   
##        <dbl> <chr>                                   
##  1       464 knives, not elsewhere classified        
##  2       474 tableware and accessories               
##  3       604 desks, chests, bureaus or buffets       
##  4       611 bathtubs or showers                     
##  5       649 toilets                                 
##  6       676 rugs or carpets, not specified          
##  7       679 sofas, couches, davenports, divans or st
##  8      1141 containers, not specified               
##  9      1200 sports or recreational activity, n.e.c. 
## 10      1205 basketball (activity, apparel or equip.)
## # … with 28 more rows
```
---

# ER injuries &mdash; population

```r
population <- vroom::vroom('data/er-injuries/population.tsv')
population
```

```
## # A tibble: 170 × 3
##      age sex    population
##    <dbl> <chr>       <dbl>
##  1     0 female    1924145
##  2     0 male      2015150
##  3     1 female    1943534
##  4     1 male      2031718
##  5     2 female    1965150
##  6     2 male      2056625
##  7     3 female    1956281
##  8     3 male      2050474
##  9     4 female    1953782
## 10     4 male      2042001
## # … with 160 more rows
```
…
# ER injuries

.row[

.col-6[

```r
selected <- injuries %>%
    filter(prod_code == 1842)
selected %>% 
    count(age, sex, wt = weight)
```

```
## # A tibble: 204 × 3
##      age sex         n
##    <dbl> <chr>   <dbl>
##  1     0 female  3714.
##  2     0 male    3981.
##  3     1 female 12155.
##  4     1 male   12898.
##  5     2 female  6949.
##  6     2 male    9730.
##  7     3 female  4542.
##  8     3 male    8404.
##  9     4 female  3618.
## 10     4 male    4845.
## # … with 194 more rows
```
…
