Reading data into R
…
Note this is the complete list &mdash; shorter than types for **readr** and no abbreviations

---

# BIOL 266 Plant Pysiology 2019

```r
col_types <- rep(c('text','numeric'), times = c(3, 9))
(plant <- read_excel(xl_file, sheet = 2, col_types = col_types))
```

```
## # A tibble: 24 × 12
##    treatment cultivar plantid `height:0` `internodes:0` `height:7`
##    <chr>     <chr>    <chr>        <dbl>          <dbl>      <dbl>
##  1 control   wt       1               83              4        321
##  2 control   wt       2               67              4        277
##  3 control   wt       3               68              4        301
##  4 control   wt       4               64              4        265
##  5 control   wt       5               62              4        263
##  6 control   wt       6               60              4        244
##  7 ga10      wt       1               50              3        220
##  8 ga10      wt       2               62              3        212
##  9 ga10      wt       3               54              3        213
## 10 ga10      wt       4               46              3        182
## # … with 14 more rows, and 6 more variables: internodes:7 <dbl>,
## #   height:14 <dbl>, internodes:14 <dbl>, height:21 <dbl>, internodes:21 <dbl>,
## #   freshwt:21 <dbl>
```
